Place,Name,Sex,Event,Division,WeightClassKg,Equipment,BirthYear,Team,State,BodyweightKg,Squat1Kg,Squat2Kg,Squat3Kg,Best3SquatKg,Bench1Kg,Bench2Kg,Bench3Kg,Best3BenchKg,Deadlift1Kg,Deadlift2Kg,Deadlift3Kg,Best3DeadliftKg,TotalKg,Age,BirthDate
1,Natalie Walker,F,SBD,FR-C,52,Raw,2003,Ram Powerlifting,TX,50,112.5,120,-125,120,57.5,-62.5,-62.5,57.5,122.5,130,135,135,312.5,,
1,Madelynn Gonzalez,F,SBD,FR-C,56,Raw,2002,Trinity University Powerlifting,TX,54.6,77.5,80,-82.5,80,37.5,-42.5,-42.5,37.5,117.5,-122.5,122.5,122.5,240,,
1,Kaia Anders,F,SBD,FR-C,60,Raw,2003,Ram Powerlifting,TX,58.6,77.5,85,90,90,45,55,-57.5,55,110,120,-130,120,265,,
1,Rayna Webb,F,SBD,FR-C,90,Raw,2000,Trinity University Powerlifting,TX,83.8,130,137.5,-142.5,137.5,60,65,67.5,67.5,115,120,122.5,122.5,327.5,,
1,Sophie Radi,F,SBD,FR-C,67.5,Raw,2002,Trinity University Powerlifting,TX,62.6,92.5,97.5,102.5,102.5,37.5,40,-42.5,40,117.5,125,-135,125,267.5,,
1,Lindsey Foushee,F,SBD,FR-C,82.5,Raw,2002,Trinity University Powerlifting,TX,80.2,107.5,112.5,-115,112.5,52.5,-57.5,57.5,57.5,-127.5,137.5,-140,137.5,307.5,,
1,Kara Stevens,F,SBD,FR-Jr,52,Raw,1999,,TX,49.5,95,102.5,107.5,107.5,50,55,57.5,57.5,102.5,110,117.5,117.5,282.5,,
1,Amanda Imes,F,SBD,FR-Jr,60,Raw,2000,,TX,56.8,125,132.5,140,140,70,75,77.5,77.5,120,130,137.5,137.5,355,,
1,Laura Bates,F,SBD,FR-M1a,100,Raw,1978,,TX,96.4,75,-80,80,80,47.5,52.5,55,55,100,107.5,115,115,250,,
1,Roge Bates,F,SBD,FR-M3b,100+,Raw,1954,,TX,103.4,75,80,85,85,45,50,-55,50,95,102.5,105,105,240,,
1,Daniela Valdez,F,SBD,FR-O,60,Raw,2004,,TX,59,-120,120,-130,120,62.5,67.5,-72.5,67.5,-137.5,137.5,145,145,332.5,,
1,Reyanne Foster,F,SBD,FR-O,75,Raw,1997,,TX,71.6,-115,115,127.5,127.5,68.5,-72.5,-72.5,68.5,125,130,-140,130,326,,
2,Lexie Wheeler,F,SBD,FR-O,75,Raw,1985,,TX,73.8,75,80,85,85,-47.5,52.5,55,55,112.5,117.5,122.5,122.5,262.5,,
1,Vanessa Panzino,F,SBD,FR-O,90,Raw,1989,,TX,83.6,125,130,-137.5,130,-60,65,-67.5,65,157.5,165,172.5,172.5,367.5,,
1,Tara Fattouh,F,SBD,FR-O,100+,Raw,1995,,TX,120.6,100,107.5,115,115,57.5,-65,65,65,132.5,140,150,150,330,,
1,Britteney Ferguson,F,SBD,FR-O,67.5,Raw,1991,,TX,67.4,112.5,120,-125,120,67.5,72.5,75,75,120,127.5,135,135,330,,
2,Alexandra Houton,F,SBD,FR-O,67.5,Raw,1995,,TX,61,50,52.5,55,55,35,-40,-40,35,80,-85,92.5,92.5,182.5,,
1,Jaylen Dehoyos,F,SBD,FR-T2,56,Raw,2004,,TX,53.4,97.5,-107.5,-107.5,97.5,47.5,50,52.5,52.5,112.5,132.5,140,140,290,,
1,Daniela Valdez,F,SBD,FR-T2,60,Raw,2004,,TX,59,-120,120,-130,120,62.5,67.5,-72.5,67.5,-137.5,137.5,145,145,332.5,,
2,Jessica Rosalez,F,SBD,FR-T2,60,Raw,2005,,TX,57.2,102.5,107.5,-110,107.5,47.5,52.5,-55,52.5,150,157.5,-160,157.5,317.5,,
1,Cameren Moore,F,SBD,FR-T2,75,Raw,2005,,TX,71.6,107.5,115,-120,115,50,57.5,60,60,112.5,120,127.5,127.5,302.5,,
1,Melissa Nunez,F,SBD,FR-T3,44,Raw,2002,,TX,43,70,-75,75,75,40,42.5,-45,42.5,120,130,135,135,252.5,,
1,Kasey Atiee,F,SBD,FR-T3,75,Raw,2002,,TX,72,45,50,-57.5,50,32.5,-42.5,-42.5,32.5,75,85,92.5,92.5,175,,
1,Chase Gibson,M,SBD,M-C,75,Single-ply,2000,,TX,73.2,175,-187.5,187.5,187.5,120,-130,-130,120,192.5,205,-217.5,205,512.5,,
1,Jaylen Montgomery,M,SBD,M-C,67.5,Single-ply,1999,Ram Powerlifting,TX,65.2,205,-217.5,-217.5,205,-110,110,120,120,205,217.5,-225,217.5,542.5,,
1,Colton Love,M,SBD,M-C,82.5,Single-ply,2002,,TX,78,205,217.5,227.5,227.5,110,117.5,-125,117.5,222.5,235,-245,235,580,,
1,Miguel Arroyo,M,SBD,M-Jr,60,Single-ply,2001,Ram Powerlifting,TX,58.4,185,192.5,197.5,197.5,92.5,-100,-100,92.5,197.5,210,-215,210,500,,
1,Phillip Villalba,M,SBD,MR-C,90,Raw,2000,Trinity University Powerlifting,TX,87,205,-215,215,215,125,130,137.5,137.5,235,247.5,-260,247.5,600,,
2,Enver Ogmen,M,SBD,MR-C,90,Raw,2001,Trinity University Powerlifting,TX,84.6,137.5,150,165,165,102.5,110,122.5,122.5,182.5,200,227.5,227.5,515,,
1,Cooper Naredo,M,SBD,MR-C,110,Raw,2003,Ram Powerlifting,TX,105.8,175,185,-195,185,95,-100,-102.5,95,185,195,205,205,485,,
1,Joshua Rayburn,M,SBD,MR-C,125,Raw,2001,,TX,115.2,217.5,232.5,242.5,242.5,117.5,-127.5,132.5,132.5,200,-215,225,225,600,,
1,Jeremiah Fultz,M,SBD,MR-C,67.5,Raw,2003,Ram Powerlifting,TX,65.8,157.5,170,177.5,177.5,90,97.5,-100,97.5,192.5,202.5,210,210,485,,
1,Edward Zamora,M,SBD,MR-Jr,60,Raw,2000,,TX,59.6,100,112.5,-122.5,112.5,85,-95,95,95,140,150,162.5,162.5,370,,
1,Chase Randall,M,SBD,MR-Jr,75,Raw,2000,,SD,71.8,187.5,195,202.5,202.5,120,-125,127.5,127.5,217.5,227.5,242.5,242.5,572.5,,
1,Eli Perez,M,SBD,MR-Jr,90,Raw,1999,Ram Powerlifting,TX,87.8,207.5,210,212.5,212.5,117.5,120,-122.5,120,220,222.5,227.5,227.5,560,,
1,Justin Roach,M,SBD,MR-Jr,82.5,Raw,2000,,TX,79.2,-155,155,165,165,85,92.5,-95,92.5,185,-197.5,-197.5,185,442.5,,
1,Paul Naredo,M,SBD,MR-M1a,110,Raw,1979,,TX,105.8,152.5,160,-170,160,87.5,92.5,97.5,97.5,160,175,182.5,182.5,440,,
1,David Barnes,M,SBD,MR-M4a,75,Raw,1948,,TX,72.4,110,120,127.5,127.5,105,110,115,115,180,187.5,192.5,192.5,435,,
1,Matthew Castella,M,SBD,MR-O,75,Raw,1995,,TX,72.6,120,130,137.5,137.5,92.5,97.5,-102.5,97.5,145,165,-177.5,165,400,,
1,Michael Opincar,M,SBD,MR-O,90,Raw,1997,,TX,87.4,185,197.5,-210,197.5,137.5,145,-152.5,145,200,215,227.5,227.5,570,,
1,Wyatt Cannon,M,SBD,MR-O,100,Raw,1994,,TX,95.4,205,210,215,215,145,150,155,155,245,252.5,257.5,257.5,627.5,,
2,Stephen Fortenberry,M,SBD,MR-O,100,Raw,1992,,TX,96.6,205,217.5,232.5,232.5,122.5,130,140,140,225,240,255,255,627.5,,
3,Donald Crowder,M,SBD,MR-O,100,Raw,1986,,TX,95.6,150,155,162.5,162.5,117.5,-120,-122.5,117.5,195,200,210,210,490,,
1,Fernando Garcia Ochoa,M,SBD,MR-O,110,Raw,1996,,TX,102,212.5,225,-247.5,225,142.5,152.5,157.5,157.5,217.5,232.5,247.5,247.5,630,,
2,Jonathon Steen,M,SBD,MR-O,110,Raw,1991,,TX,103.4,182.5,195,207.5,207.5,107.5,115,122.5,122.5,200,215,227.5,227.5,557.5,,
3,Paul Naredo,M,SBD,MR-O,110,Raw,1979,,TX,105.8,152.5,160,-170,160,87.5,92.5,97.5,97.5,160,175,182.5,182.5,440,,
1,Austin Kawamura,M,SBD,MR-O,125,Raw,1991,,TX,118.4,185,200,-217.5,200,125,135,137.5,137.5,192.5,215,227.5,227.5,565,,
1,Robert Ybarra,M,SBD,MR-O,140,Raw,1992,,TX,136.8,260,277.5,-295,277.5,185,200,212.5,212.5,242.5,260,275,275,765,,
1,Joshua Lipp,M,SBD,MR-O,67.5,Raw,1997,,CA,65.8,185,195,200,200,122.5,130,-132.5,130,245,260,-267.5,260,590,,
2,Kevin Pak,M,SBD,MR-O,67.5,Raw,1996,,CA,65.6,180,195,207.5,207.5,115,122.5,125,125,225,240,252.5,252.5,585,,
3,Drew Cortez,M,SBD,MR-O,67.5,Raw,1991,,TX,64.4,-110,110,122.5,122.5,-92.5,-92.5,92.5,92.5,150,182.5,187.5,187.5,402.5,,
1,Miles Jesurun,M,SBD,MR-O,82.5,Raw,1996,,TX,78,167.5,177.5,185,185,117.5,125,130,130,205,217.5,232.5,232.5,547.5,,
2,Justin Roach,M,SBD,MR-O,82.5,Raw,2000,,TX,79.2,-155,155,165,165,85,92.5,-95,92.5,185,-197.5,-197.5,185,442.5,,
3,Josh Hockett,M,SBD,MR-O,82.5,Raw,1984,,TX,79.8,-152.5,155,-162.5,155,-92.5,-92.5,92.5,92.5,185,187.5,192.5,192.5,440,,
1,Caden Dorman,M,SBD,MR-T2,60,Raw,2004,,TX,58.9,87.5,92.5,97.5,97.5,50,55,57.5,57.5,137.5,147.5,150,150,305,,
1,Benjamin Schofield,M,SBD,MR-T2,100,Raw,2005,,TX,94.6,170,182.5,187.5,187.5,92.5,-95,97.5,97.5,215,227.5,-237.5,227.5,512.5,,
1,David Chesser,M,SBD,MR-T2,82.5,Raw,2004,,TX,77.2,125,135,145,145,65,70,75,75,175,187.5,200,200,420,,
1,Joshua Hernandez,M,SBD,MR-T3,82.5,Raw,2002,,TX,80,-175,180,200,200,95,102.5,107.5,107.5,177.5,190,210,210,517.5,,
1,Halo Zamora,M,BD,MR-Y3,44,Raw,2009,,TX,43,,,,,37.5,40,-45,40,75,80,85,85,125,,
