Division,WeightClassKg,Place,Name,Team,BodyweightKg,Best3SquatKg,Best3BenchKg,Best3DeadliftKg,TotalKg,Equipment,Event,Sex,BirthDate
Boys,51.71,1,David Perez,Tahoka,49.26,111.13,65.77,129.27,306.17,Single-ply,SBD,M,
Boys,51.71,2,Brady Brown,New Home,51.62,97.52,52.16,95.25,244.94,Single-ply,SBD,M,
Boys,51.71,3,Justin Dyck,Muleshoe,50.26,90.72,61.23,79.38,231.33,Single-ply,SBD,M,
Boys,55.79,1,Toby Crabb,Slaton,55.52,136.08,95.25,136.08,367.41,Single-ply,SBD,M,
Boys,55.79,2,Colton Engle,Slaton,55.61,131.54,70.31,154.22,356.07,Single-ply,SBD,M,
Boys,55.79,3,Koy Torres,Sundown,55.7,136.08,61.23,138.35,335.66,Single-ply,SBD,M,
Boys,55.79,4,Dillon Bruington,Floydada,55.79,136.08,72.57,127.01,335.66,Single-ply,SBD,M,
Boys,55.79,5,Jayson Cooper,Floydada,55.16,117.93,58.97,120.2,297.1,Single-ply,SBD,M,
Boys,55.79,6,Issac Ruiz,Slaton,54.88,102.06,68.04,120.2,290.3,Single-ply,SBD,M,
Boys,55.79,7,Quincey Graham,Slaton,55.34,108.86,54.43,113.4,276.69,Single-ply,SBD,M,
Boys,59.87,1,Aidon Olivas,Sundown,59.56,176.9,92.99,174.63,444.52,Single-ply,SBD,M,
Boys,59.87,2,Derek Barron,Muleshoe,59.51,181.44,83.91,170.1,435.45,Single-ply,SBD,M,
Boys,59.87,3,Carlos Perez #3,Sundown,58.06,147.42,81.65,174.63,403.7,Single-ply,SBD,M,
Boys,59.87,4,Brayden Sanders,Sundown,57.33,136.08,79.38,161.03,376.48,Single-ply,SBD,M,
Boys,59.87,5,Uriel Vasquez,Muleshoe,58.15,140.61,83.91,136.08,360.61,Single-ply,SBD,M,
Boys,59.87,6,John Michael Calzoncit,Tahoka,56.25,106.59,58.97,120.2,285.76,Single-ply,SBD,M,
Boys,59.87,7,David Fisher,Abernathy,57.88,99.79,49.9,124.74,274.42,Single-ply,SBD,M,
Boys,59.87,DQ,Kye Bailey,Abernathy,58.51,120.2,61.23,,,Single-ply,SBD,M,
Boys,67.13,1,Josh Chavarin,Slaton,66.41,199.58,111.13,215.46,526.17,Single-ply,SBD,M,
Boys,67.13,2,Pablo Mendoza,Sundown,62.96,190.51,108.86,201.85,501.22,Single-ply,SBD,M,
Boys,67.13,3,Eddie Betencourt,Slaton,66.59,163.29,106.59,199.58,469.47,Single-ply,SBD,M,
Boys,67.13,4,Daniel Estrada,New Home,65.86,181.44,106.59,165.56,453.59,Single-ply,SBD,M,
Boys,67.13,5,Landon Simmons,Slaton,65.23,165.56,104.33,167.83,437.72,Single-ply,SBD,M,
Boys,67.13,6,Marcos Hernandez,Sundown,65.05,163.29,88.45,174.63,426.38,Single-ply,SBD,M,
Boys,67.13,7,Anthony Trevino,Lamesa,66.95,165.56,81.65,172.37,419.57,Single-ply,SBD,M,
Boys,67.13,8,Gabriel Guardiola,Sundown,66.95,154.22,102.06,149.69,405.97,Single-ply,SBD,M,
Boys,67.13,9,Avel Sinklier,Abernathy,64.77,156.49,90.72,149.69,396.89,Single-ply,SBD,M,
Boys,67.13,10,Jonathan Renteria,Tahoka,64.95,140.61,72.57,172.37,385.55,Single-ply,SBD,M,
Boys,67.13,11,Osiris Flores,Seagraves,65.05,149.69,68.04,165.56,383.29,Single-ply,SBD,M,
Boys,67.13,12,Elijah Martinez,Seagraves,64.32,145.15,86.18,149.69,381.02,Single-ply,SBD,M,
Boys,67.13,13,Paxtyn Gwin,Tahoka,65.77,138.35,90.72,147.42,376.48,Single-ply,SBD,M,
Boys,67.13,14,Robert Soliz,Sundown,61.05,147.42,83.91,142.88,374.21,Single-ply,SBD,M,
Boys,67.13,15,Mark Reyna,Sundown,63.87,140.61,81.65,133.81,356.07,Single-ply,SBD,M,
Boys,67.13,16,Jose Flores #4,Seagraves,66.86,127.01,70.31,151.95,349.27,Single-ply,SBD,M,
Boys,67.13,17,Aaron Cortez,Abernathy,60.96,129.27,72.57,138.35,340.19,Single-ply,SBD,M,
Boys,67.13,18,Keegan Cambell,Shallowater,64.68,115.67,79.38,140.61,335.66,Single-ply,SBD,M,
Boys,67.13,19,Cj Anzley,Slaton,65.32,113.4,79.38,136.08,328.85,Single-ply,SBD,M,
Boys,67.13,20,Thomas Sullivan,Tahoka,64.5,113.4,61.23,145.15,319.78,Single-ply,SBD,M,
Boys,67.13,21,Damian Marquez,Olton,61.42,102.06,79.38,136.08,317.51,Single-ply,SBD,M,
Boys,67.13,22,Israel Herrera,Slaton,60.87,111.13,65.77,136.08,312.98,Single-ply,SBD,M,
Boys,67.13,23,Joseph George,Tahoka,64.14,106.59,56.7,131.54,294.84,Single-ply,SBD,M,
Boys,67.13,24,Jayden Alaman,Slaton,65.14,108.86,56.7,113.4,278.96,Single-ply,SBD,M,
Boys,67.13,25,Nick Hart,Sundown,60.78,83.91,54.43,106.59,244.94,Single-ply,SBD,M,
Boys,67.13,DQ,Xavier Rodriguez,Olton,63.59,113.4,,,,Single-ply,SBD,M,
Boys,67.13,DQ,Josh Marquez,Olton,66.86,,,,,Single-ply,SBD,M,
Boys,67.13,DQ,Quiton Lanier,Shallowater,60.06,,,,,Single-ply,SBD,M,
Boys,74.84,1,Cade Conway,Sundown,74.75,204.12,136.08,192.78,532.97,Single-ply,SBD,M,
Boys,74.84,2,Chris Rader,Slaton,72.12,199.58,108.86,199.58,508.02,Single-ply,SBD,M,
Boys,74.84,3,Malik Hamilton,Tahoka,71.03,199.58,104.33,197.31,501.22,Single-ply,SBD,M,
Boys,74.84,4,Grayson Richardson,Sundown,73.94,174.63,111.13,185.97,471.74,Single-ply,SBD,M,
Boys,74.84,5,Ben Flores,Abernathy,67.49,170.1,102.06,197.31,469.47,Single-ply,SBD,M,
Boys,74.84,6,Joshua Easley,Shallowater,72.85,174.63,92.99,176.9,444.52,Single-ply,SBD,M,
Boys,74.84,7,Zane Cavazos,Lamesa,67.49,172.37,77.11,167.83,417.3,Single-ply,SBD,M,
Boys,74.84,8,Stephen Keene,Tahoka,70.67,142.88,92.99,167.83,403.7,Single-ply,SBD,M,
Boys,74.84,9,Major McCulley,Shallowater,74.12,142.88,108.86,147.42,399.16,Single-ply,SBD,M,
Boys,74.84,10,Samuel Aguirre,Lamesa,70.49,158.76,65.77,156.49,381.02,Single-ply,SBD,M,
Boys,74.84,11,Logan Boggs,Sundown,72.03,142.88,92.99,145.15,381.02,Single-ply,SBD,M,
Boys,74.84,12,Marcos Ogeda,Lamesa,74.66,138.35,72.57,163.29,374.21,Single-ply,SBD,M,
Boys,74.84,13,Kash Koonsman,Lubbock Roosevelt,70.03,127.01,95.25,142.88,365.14,Single-ply,SBD,M,
Boys,74.84,14,Grady Roberts,Olton,70.31,133.81,88.45,136.08,358.34,Single-ply,SBD,M,
Boys,74.84,15,Jc Camacho,Sundown,71.3,131.54,70.31,133.81,335.66,Single-ply,SBD,M,
Boys,74.84,DQ,Jose Lira,Floydada,69.04,172.37,,,,Single-ply,SBD,M,
Boys,82.1,1,Blake Hulse,Sundown,81.47,260.82,147.42,233.6,641.83,Single-ply,SBD,M,
Boys,82.1,2,Alexander Herevia,Tahoka,75.66,226.8,140.61,215.46,582.87,Single-ply,SBD,M,
Boys,82.1,3,EJ Hernandez,Sundown,82.01,210.92,142.88,229.06,582.87,Single-ply,SBD,M,
Boys,82.1,4,Kevin Garcia,Sundown,80.01,215.46,131.54,222.26,569.26,Single-ply,SBD,M,
Boys,82.1,5,Sergio Guerrero,Olton,82.1,215.46,124.74,190.51,530.7,Single-ply,SBD,M,
Boys,82.1,6,Jesus Rivera,Abernathy,81.1,206.38,138.35,170.1,514.83,Single-ply,SBD,M,
Boys,82.1,7,Alex Trevino,Lubbock Roosevelt,80.74,185.97,92.99,190.51,469.47,Single-ply,SBD,M,
Boys,82.1,8,Junior Eustace,Lubbock Roosevelt,79.11,172.37,88.45,181.44,442.25,Single-ply,SBD,M,
Boys,82.1,9,Braxton Barret,Shallowater,79.56,142.88,97.52,140.61,381.02,Single-ply,SBD,M,
Boys,82.1,10,Isiah Flores,Sundown,76.75,147.42,79.38,129.27,356.07,Single-ply,SBD,M,
Boys,82.1,11,Nick Caffey,Lubbock Roosevelt,82.01,127.01,74.84,136.08,337.93,Single-ply,SBD,M,
Boys,82.1,12,Landon Longoria,Seagraves,81.19,102.06,68.04,115.67,285.76,Single-ply,SBD,M,
Boys,89.81,1,Nicodemus Ayala,Tahoka,88.99,222.26,156.49,217.72,596.47,Single-ply,SBD,M,
Boys,89.81,2,Jonathan Golightly,Sundown,86.82,222.26,145.15,204.12,571.53,Single-ply,SBD,M,
Boys,89.81,3,Diego Hernandez,Sundown,84.91,215.46,127.01,204.12,546.58,Single-ply,SBD,M,
Boys,89.81,4,Jj Diaz,Lubbock Roosevelt,84.64,195.04,127.01,197.31,519.36,Single-ply,SBD,M,
Boys,89.81,5,Tae Thompson,Slaton,88.81,199.58,122.47,179.17,501.22,Single-ply,SBD,M,
Boys,89.81,6,Lucas Barrington,Shallowater,87.63,185.97,117.93,190.51,494.42,Single-ply,SBD,M,
Boys,89.81,7,Tj Payne,Slaton,88.18,204.12,106.59,181.44,492.15,Single-ply,SBD,M,
Boys,89.81,8,John Cortez,Abernathy,89.36,197.31,92.99,201.85,492.15,Single-ply,SBD,M,
Boys,89.81,9,Clemente Olvera,Lamesa,87.82,163.29,102.06,192.78,458.13,Single-ply,SBD,M,
Boys,89.81,10,Jacobee Ortega,Shallowater,84.37,163.29,83.91,185.97,433.18,Single-ply,SBD,M,
Boys,89.81,11,Trent Wright,Slaton,86.36,156.49,95.25,172.37,424.11,Single-ply,SBD,M,
Boys,89.81,12,Alex Tew,Tahoka,88.72,149.69,86.18,183.7,419.57,Single-ply,SBD,M,
Boys,89.81,13,Marcos Vargas,Sundown,88.63,149.69,88.45,163.29,401.43,Single-ply,SBD,M,
Boys,89.81,14,Pedro Pedroza,Olton,87.09,142.88,102.06,154.22,399.16,Single-ply,SBD,M,
Boys,89.81,15,Nate Payen,Crosbyton,88.09,145.15,68.04,156.49,369.68,Single-ply,SBD,M,
Boys,99.79,1,Gavin Richardson,Sundown,91.26,226.8,129.27,215.46,571.53,Single-ply,SBD,M,
Boys,99.79,2,Zakary Gragson,Sundown,94.08,226.8,129.27,206.38,562.45,Single-ply,SBD,M,
Boys,99.79,3,Bryson Leaks,Abernathy,97.61,210.92,127.01,195.04,532.97,Single-ply,SBD,M,
Boys,99.79,4,Tyler Ivins,Olton,92.71,163.29,111.13,183.7,458.13,Single-ply,SBD,M,
Boys,99.79,5,Kalub Morales,Abernathy,96.43,174.63,92.99,174.63,442.25,Single-ply,SBD,M,
Boys,99.79,6,Daniel Leyva,Slaton,95.07,181.44,102.06,154.22,437.72,Single-ply,SBD,M,
Boys,99.79,7,Elic Goicachea,Shallowater,93.44,167.83,90.72,167.83,426.38,Single-ply,SBD,M,
Boys,99.79,8,Carter Gilson,Shallowater,92.99,151.95,74.84,183.7,410.5,Single-ply,SBD,M,
Boys,99.79,DQ,Sergio Arazate,Shallowater,94.35,,,,,Single-ply,SBD,M,
Boys,109.77,1,Gabriel Chavez,Olton,105.78,303.91,158.76,263.08,725.75,Single-ply,SBD,M,
Boys,109.77,2,Andy Casias,Abernathy,106.14,249.48,140.61,226.8,616.89,Single-ply,SBD,M,
Boys,109.77,3,Juan Carlos Pedroza,Olton,108.77,215.46,136.08,226.8,578.33,Single-ply,SBD,M,
Boys,109.77,4,Andy Castillo,Sundown,103.51,215.46,122.47,229.06,566.99,Single-ply,SBD,M,
Boys,109.77,5,Randy Cantu,Abernathy,107.05,179.17,106.59,172.37,458.13,Single-ply,SBD,M,
Boys,109.77,6,Xavier Contreras,Shallowater,104.69,163.29,92.99,145.15,401.43,Single-ply,SBD,M,
Boys,109.77,7,Seth Allred,Abernathy,103.33,161.03,86.18,142.88,390.09,Single-ply,SBD,M,
Boys,124.74,1,Elias Aguirre,Muleshoe,110.31,238.14,158.76,204.12,601.01,Single-ply,SBD,M,
Boys,124.74,2,Corbin Escobedo,Tahoka,120.84,231.33,124.74,208.65,564.72,Single-ply,SBD,M,
Boys,124.74,3,Elijah Vega,Crosbyton,112.49,204.12,124.74,206.38,535.24,Single-ply,SBD,M,
Boys,124.74,4,Jeffery Rodriguez,Sundown,114.21,190.51,104.33,188.24,483.08,Single-ply,SBD,M,
Boys,124.74,5,Jon Dylan Rodriguez,Tahoka,119.66,149.69,95.25,172.37,417.3,Single-ply,SBD,M,
Boys,124.74+,1,Chris Torres,Crosbyton,169.28,294.84,147.42,208.65,650.91,Single-ply,SBD,M,
Boys,124.74+,2,Nico Rodriguez,Sundown,130,231.33,151.95,197.31,580.6,Single-ply,SBD,M,
Boys,124.74+,3,Kade Hurt,Tahoka,131,165.56,90.72,167.83,424.11,Single-ply,SBD,M,
